{
  "devlogs": [
    {
      "text": "the bot is mostly complete!!! now its on to software improvements over the off season",
      "id": 3,
      "attachment": "...",
      "project_id": 9,
      "slack_id": "...",
      "created_at": "2025-06-16T01:25:32.551Z",
      "updated_at": "2025-07-28T06:06:51.963Z"
    },
    {
      "text": "It's my website! And it's pretty much almost done. If anyone has any feedback or stuff I should add hit me up",
      "id": 5,
      "attachment": "",
      "project_id": 10,
      "slack_id": "...",
      "created_at": "2025-06-16T01:41:33.331Z",
      "updated_at": "2025-07-28T06:06:51.091Z"
    },
    {
      "text": "My nixie clock that's still a work in progress. I have to make the footprint for the boost converter and have to CAD another case that lets it be used as a horizontal clock",
      "id": 6,
      "attachment": "",
      "project_id": 12,
      "slack_id": "...",
      "created_at": "2025-06-16T01:44:17.545Z",
      "updated_at": "2025-07-28T06:01:53.109Z"
    }],
    "pagination": {
        "page": 1,
        "pages": 363,
        "count": 7243,
        "items": 20
    }
}